[
  {
    "id": 1,
    "CI": "1384568294",
    "Nombre": "Gus Rodriguez",
    "Direccion": "Calle 12 Av 45",
    "Telefono": "0994456892",
    "Correo": "gus@gmail.com",
    "Curso": "5nto",
    "Paralelo": "A"
  },
  {
    "id": 2,
    "CI": "3972901605",
    "Nombre": "Carol Mendoza",
    "Direccion": "Calle 4 Av 233",
    "Telefono": "0994456892",
    "Correo": "carol@gmail.com",
    "Curso": "5nto",
    "Paralelo": "A"
  },
  {
    "id": 3,
    "CI": "2976005764",
    "Nombre": "Diego Lopez",
    "Direccion": "Calle 1 Av 4",
    "Telefono": "0994456892",
    "Correo": "diego@gmail.com",
    "Curso": "5nto",
    "Paralelo": "A"
  },
  {
    "id": 4,
    "CI": "9086979134",
    "Nombre": "Cuatemo Zambrano",
    "Direccion": "Calle 34 Av 95",
    "Telefono": "0994456892",
    "Correo": "cuet@gmail.com",
    "Curso": "5nto",
    "Paralelo": "A"
  },
  {
    "id": 5,
    "CI": "9564366000",
    "Nombre": "Benjie Gonzales",
    "Direccion": "Calle 56 Av 99",
    "Telefono": "0994456892",
    "Correo": "benjie@gmail.com",
    "Curso": "5nto",
    "Paralelo": "A"
  },
  {
    "id": 6,
    "CI": "6306145181",
    "Nombre": "Mocha Guerrero",
    "Direccion": "Calle 56 Av 12",
    "Telefono": "0994456892",
    "Correo": "mocha@gmail.com",
    "Curso": "5nto",
    "Paralelo": "A"
  },
  {
    "id": 7,
    "CI": "4775561341",
    "Nombre": "Milena Gallardo",
    "Direccion": "Calle 22 Av 11",
    "Telefono": "0994456892",
    "Correo": "mile@gmail.com",
    "Curso": "5nto",
    "Paralelo": "A"
  },
  {
    "id": 8,
    "CI": "4309422579",
    "Nombre": "Mero Mero",
    "Direccion": "Calle 86 Av 45",
    "Telefono": "0994456892",
    "Correo": "mero@gmail.com",
    "Curso": "5nto",
    "Paralelo": "A"
  },
  {
    "id": 9,
    "CI": "6007235505",
    "Nombre": "Ariana Cajas",
    "Direccion": "Calle 29 Av 15",
    "Telefono": "0994456892",
    "Correo": "ari@gmail.com",
    "Curso": "5nto",
    "Paralelo": "A"
  },
  {
    "id": 10,
    "CI": "9256879352",
    "Nombre": "Sayde Mero",
    "Direccion": "Calle 4 Av 4",
    "Telefono": "0994456892",
    "Correo": "say@gmail.com",
    "Curso": "5nto",
    "Paralelo": "A"
  }
]